// Jest Snapshot v1, https://goo.gl/fbAQLP

exports[`should render a single item 1`] = `
<div
  style={
    Object {
      "height": "75%",
      "width": "80%",
    }
  }
>
  <div
    aria-colcount={5}
    aria-multiselectable={false}
    aria-rowcount={1}
    className="MuiDataGrid-root MuiDataGrid-root"
    role="grid"
  >
    <div
      className="MuiDataGrid-main"
    >
      <div
        className="MuiDataGrid-overlay"
        error={[TypeError: Cannot read property 'parentElement' of null]}
        hasError={true}
        style={
          Object {
            "top": 56,
          }
        }
      >
        An error occurred.
      </div>
    </div>
  </div>
</div>
`;

exports[`should render an empty table when no items 1`] = `
<div
  style={
    Object {
      "height": "75%",
      "width": "80%",
    }
  }
/>
`;

exports[`should render multiple item 1`] = `
<div
  style={
    Object {
      "height": "75%",
      "width": "80%",
    }
  }
/>
`;
